{
  "project_info": {
    "project_number": "62782110029",
    "project_id": "login-sendo",
    "storage_bucket": "login-sendo.appspot.com"
  },
  "client": [
    {
      "client_info": {
        "mobilesdk_app_id": "1:62782110029:android:ffa1c1220339b5d7c8df04",
        "android_client_info": {
          "package_name": "com.example.my_sendo"
        }
      },
      "oauth_client": [
        {
          "client_id": "62782110029-9bk54jslftb1cr47olidpbtsjj6sqnrl.apps.googleusercontent.com",
          "client_type": 3
        }
      ],
      "api_key": [
        {
          "current_key": "AIzaSyAX5W1XKeqCVh9YYlh0DGRoAZobKRh3EM0"
        }
      ],
      "services": {
        "appinvite_service": {
          "other_platform_oauth_client": [
            {
              "client_id": "62782110029-9bk54jslftb1cr47olidpbtsjj6sqnrl.apps.googleusercontent.com",
              "client_type": 3
            }
          ]
        }
      }
    }
  ],
  "configuration_version": "1"
}